module github.com/KushNee/javkit-golang

go 1.14

require (
	github.com/PuerkitoBio/goquery v1.5.1
	github.com/c-bata/go-prompt v0.2.3
	github.com/cheggaaa/pb/v3 v3.0.4
	github.com/fatih/color v1.9.0
	github.com/imroc/req v0.3.0
	github.com/mattn/go-colorable v0.1.6 // indirect
	github.com/mattn/go-runewidth v0.0.8 // indirect
	github.com/mattn/go-tty v0.0.3 // indirect
	github.com/pelletier/go-toml v1.6.0
	github.com/pkg/term v0.0.0-20190109203006-aa71e9d9e942 // indirect
	github.com/smartystreets/goconvey v1.6.4 // indirect
	github.com/thoas/go-funk v0.6.0
	golang.org/x/sys v0.0.0-20220412211240-33da011f77ad // indirect
	gopkg.in/ini.v1 v1.54.0
)
